{
	"info": {
		"_postman_id": "137af380-d1fa-4443-96ae-44295d6d914e",
		"name": "fintonic",
		"schema": "https://schema.getpostman.com/json/collection/v2.1.0/collection.json"
	},
	"item": [
		{
			"name": "Register_User",
			"request": {
				"method": "POST",
				"header": [
					{
						"key": "Content-Type",
						"name": "Content-Type",
						"value": "application/json",
						"type": "text"
					}
				],
				"body": {
					"mode": "raw",
					"raw": "{\n\t\"firstName\":\"Flavius\",\n\t\"lastName\":\"Lacatusu\",\n\t\"email\":\"flavius_lacatusu@gmail.com\",\n\t\"password\":\"fintonic_prueba\"\n}"
				},
				"url": {
					"raw": "http://192.168.1.130:9095/api/register",
					"protocol": "http",
					"host": [
						"192",
						"168",
						"1",
						"130"
					],
					"port": "9095",
					"path": [
						"api",
						"register"
					]
				}
			},
			"response": []
		},
		{
			"name": "Login_Fintonic",
			"request": {
				"method": "POST",
				"header": [
					{
						"key": "Content-Type",
						"name": "Content-Type",
						"value": "application/json",
						"type": "text"
					}
				],
				"body": {
					"mode": "raw",
					"raw": "{\n\t\"email\":\"flavius_lacatusu@gmail.com\",\n\t\"password\":\"fintonic_prueba\"\n}"
				},
				"url": {
					"raw": "http://192.168.1.130:9095/api/login",
					"protocol": "http",
					"host": [
						"192",
						"168",
						"1",
						"130"
					],
					"port": "9095",
					"path": [
						"api",
						"login"
					]
				}
			},
			"response": []
		},
		{
			"name": "Create_Products",
			"request": {
				"method": "POST",
				"header": [
					{
						"key": "Content-Type",
						"name": "Content-Type",
						"value": "application/json",
						"type": "text"
					},
					{
						"warning": "This is a duplicate header and will be overridden by the Authorization header generated by Postman.",
						"key": "Authorization",
						"value": "Bearer eyJhbGciOiJIUzI1NiIsInR5cCI6IkpXVCJ9.eyJpZCI6IjVjNTllM2E0YjI2MWMxZTFmZWRkMzhkMyIsImZpcnN0TmFtZSI6IkZsYXZpdXMiLCJsYXN0TmFtZSI6IkxhY2F0dXN1IiwiaWF0IjoxNTQ5Mzk4MzgxLCJleHAiOjE1NDk0MDE5ODF9.4SITQHIG4WgFF3aWyexwQb-bVTczLjrCPjvnHMo0nY0",
						"type": "text"
					}
				],
				"body": {
					"mode": "raw",
					"raw": "{\n\t\"productName\": \"Samsung\",\n\t\"description\": \"Prueba descripcion\"\n}"
				},
				"url": {
					"raw": "http://192.168.1.130:9095/api/createProduct",
					"protocol": "http",
					"host": [
						"192",
						"168",
						"1",
						"130"
					],
					"port": "9095",
					"path": [
						"api",
						"createProduct"
					]
				}
			},
			"response": []
		},
		{
			"name": "Get_All Products",
			"request": {
				"method": "GET",
				"header": [],
				"body": {
					"mode": "raw",
					"raw": ""
				},
				"url": {
					"raw": "http://192.168.1.130:9095/api/products/all",
					"protocol": "http",
					"host": [
						"192",
						"168",
						"1",
						"130"
					],
					"port": "9095",
					"path": [
						"api",
						"products",
						"all"
					]
				}
			},
			"response": []
		},
		{
			"name": "DeleteProductByName",
			"request": {
				"method": "POST",
				"header": [
					{
						"key": "Content-Type",
						"name": "Content-Type",
						"value": "application/json",
						"type": "text"
					},
					{
						"key": "Authorization",
						"value": "Bearer eyJhbGciOiJIUzI1NiIsInR5cCI6IkpXVCJ9.eyJpZCI6IjVjNTllM2E0YjI2MWMxZTFmZWRkMzhkMyIsImZpcnN0TmFtZSI6IkZsYXZpdXMiLCJsYXN0TmFtZSI6IkxhY2F0dXN1IiwiaWF0IjoxNTQ5Mzk4MzgxLCJleHAiOjE1NDk0MDE5ODF9.4SITQHIG4WgFF3aWyexwQb-bVTczLjrCPjvnHMo0nY0",
						"type": "text"
					}
				],
				"body": {
					"mode": "raw",
					"raw": "{\n\t\"productName\":\"Iphone\"\n}"
				},
				"url": {
					"raw": "http://192.168.1.130:9095/api/deleteProduct",
					"protocol": "http",
					"host": [
						"192",
						"168",
						"1",
						"130"
					],
					"port": "9095",
					"path": [
						"api",
						"deleteProduct"
					]
				}
			},
			"response": []
		}
	]
}